<svg xmlns="http://www.w3.org/2000/svg" width="48" height="48" viewBox="0 0 48 48">
  <g id="Group_2728" data-name="Group 2728" transform="translate(-6035 -4143)">
    <g id="Group_2726" data-name="Group 2726" transform="translate(106 102)" opacity="0.05">
      <circle id="Ellipse_488" data-name="Ellipse 488" cx="24" cy="24" r="24" transform="translate(5929 4041)" fill="#00cbff"/>
    </g>
    <g id="Group_2727" data-name="Group 2727" transform="translate(123 119)">
      <g id="Ellipse_488-2" data-name="Ellipse 488" transform="translate(5929 4041)" fill="#00cbff" stroke="#fff" stroke-width="1">
        <circle cx="7" cy="7" r="7" stroke="none"/>
        <circle cx="7" cy="7" r="6.5" fill="none"/>
      </g>
    </g>
  </g>
</svg>
