<svg id="Key" xmlns="http://www.w3.org/2000/svg" width="211.571" height="122.69" viewBox="0 0 211.571 122.69">
  <g id="Key-2" data-name="Key" transform="translate(0 0)">
    <path id="Path_39" data-name="Path 39" d="M115.918,407.607v7.347c-.03,8.633,5.659,17.271,17.066,23.857,17.181,9.92,42.413,12.339,63.542,7.279l19.624,11.33,15.077-3.408,10.29,5.941.562,12.437,5.543,3.2,13.923,1.223,10.007,5.582v7.011l12.557,7.249h31.933l11.446-6.6v-7.415L225.36,431.088c4.7-4.99,7.063-10.523,7.073-16.055v-7.426c-1.536-7.168-7.509-10.867-17.043-16.372-22.755-13.138-59.65-13.138-82.405,0C122.754,397.142,116.95,399.884,115.918,407.607Zm31.281-8.582c6.445-3.721,16.9-3.721,23.343,0s6.447,9.757,0,13.478-16.9,3.721-23.343,0S140.752,402.747,147.2,399.025Z" transform="translate(-115.918 -373.967)" fill="#27debf"/>
    <path id="Path_40" data-name="Path 40" d="M115.918,407.607v7.347c-.03,8.633,5.659,17.271,17.066,23.857,17.181,9.92,42.413,12.339,63.542,7.279l19.624,11.33,15.077-3.408,10.29,5.941.562,12.437,5.543,3.2,13.923,1.223,10.007,5.582v7.011l12.557,7.249h31.933l11.446-6.6v-7.415L225.36,431.088c4.7-4.99,7.063-10.523,7.073-16.055v-7.426c-1.536-7.168-7.509-10.867-17.043-16.372-22.755-13.138-59.65-13.138-82.405,0C122.754,397.142,116.95,399.884,115.918,407.607Zm31.281-8.582c6.445-3.721,16.9-3.721,23.343,0s6.447,9.757,0,13.478-16.9,3.721-23.343,0S140.752,402.747,147.2,399.025Z" transform="translate(-115.918 -373.967)" fill="#0060ae"/>
    <path id="Path_41" data-name="Path 41" d="M132.984,434.866c17.181,9.918,42.413,12.337,63.542,7.279l19.624,11.33,15.077-3.409,10.29,5.941.562,12.439,5.543,3.2,13.923,1.224,10.856,6.056-.85,6.537,12.557,7.249h31.933l11.446-6.6L225.36,427.141c12.027-12.76,8.727-29.057-9.971-39.851-22.755-13.138-59.65-13.138-82.405,0S110.229,421.728,132.984,434.866ZM147.2,395.08c6.445-3.723,16.9-3.723,23.343,0s6.447,9.755,0,13.478-16.9,3.721-23.343,0S140.752,398.8,147.2,395.08Z" transform="translate(-115.918 -377.437)" fill="#188fef"/>
    <path id="Path_42" data-name="Path 42" d="M171.165,435.243c-14.444,0-27.931-3.192-37.974-8.988-8.794-5.08-13.839-11.713-13.839-18.2s5.045-13.119,13.839-18.2c10.042-5.8,23.53-8.988,37.974-8.988s27.931,3.191,37.974,8.988c8.794,5.078,13.839,11.713,13.839,18.2s-5.045,13.119-13.839,18.2C199.1,432.052,185.611,435.243,171.165,435.243Zm0-51.79c-14,0-27.025,3.069-36.682,8.642-7.973,4.6-12.548,10.424-12.548,15.961s4.575,11.356,12.548,15.963c9.657,5.573,22.684,8.642,36.682,8.642s27.027-3.069,36.684-8.642c7.973-4.607,12.546-10.424,12.546-15.963S215.822,396.7,207.848,392.1C198.193,386.523,185.166,383.453,171.165,383.453Z" transform="translate(-112.896 -374.416)" opacity="0.3"/>
    <path id="Path_43" data-name="Path 43" d="M135.762,412.175v7.413a98.818,98.818,0,0,0,43.311-.31v-7.413A98.817,98.817,0,0,1,135.762,412.175Z" transform="translate(-98.465 -347.156)" opacity="0.1"/>
    <path id="Path_44" data-name="Path 44" d="M169.247,419.488V426.9l15.077-3.409v-7.415Z" transform="translate(-69.014 -343.45)" opacity="0.1"/>
    <path id="Path_45" data-name="Path 45" d="M182.744,419.24v7.415l.561,12.438v-7.416Z" transform="translate(-57.144 -340.67)" opacity="0.1"/>
    <path id="Path_46" data-name="Path 46" d="M185.992,427.561v7.416l13.924,1.223v-7.415Z" transform="translate(-54.287 -333.352)" opacity="0.1"/>
    <rect id="Rectangle_1" data-name="Rectangle 1" width="31.932" height="7.415" transform="translate(168.193 115.275)" opacity="0.1"/>
    <path id="Path_47" data-name="Path 47" d="M233.841,435.255v7.415l-11.446,6.6v-7.415l5.016-2.9v3.2l2.769-1.6v-3.234Z" transform="translate(-22.27 -326.585)" opacity="0.15"/>
    <path id="Path_49" data-name="Path 49" d="M275.548,463.91v3.234L170.812,406.668l2.77-1.632Z" transform="translate(-67.638 -353.162)" opacity="0.15"/>
    <path id="Path_50" data-name="Path 50" d="M173.581,405.036v3.234l-2.77-1.6Z" transform="translate(-67.638 -353.162)" opacity="0.15"/>
  </g>
</svg>
