<svg xmlns="http://www.w3.org/2000/svg" width="80" height="80" viewBox="0 0 80 80">
  <g id="end_call" data-name="end call" transform="translate(-15668 4209.666)">
    <circle id="Ellipse_501" data-name="Ellipse 501" cx="40" cy="40" r="40" transform="translate(15668 -4209.667)" fill="#e90d42"/>
    <g id="Group_2739" data-name="Group 2739" transform="translate(15736.516 -4169.883) rotate(135)">
      <g id="phone-call" transform="translate(5.037 5.023)">
        <g id="Group_2365" data-name="Group 2365">
          <path id="Path_1986" data-name="Path 1986" d="M25.232,17.956a3.145,3.145,0,0,0-2.281-1.046,3.252,3.252,0,0,0-2.308,1.039l-2.134,2.122c-.167-.094-.351-.182-.519-.269-.243-.122-.472-.236-.669-.358a23.178,23.178,0,0,1-5.553-5.063,13.673,13.673,0,0,1-1.816-2.87c.554-.5,1.066-1.033,1.565-1.538.189-.189.378-.385.567-.574a3.1,3.1,0,0,0,0-4.669L10.243,2.889c-.209-.209-.425-.425-.628-.641C9.211,1.829,8.779,1.4,8.347.992A3.2,3.2,0,0,0,6.086,0a3.305,3.305,0,0,0-2.3.992l-.013.013L1.477,3.319A4.937,4.937,0,0,0,.012,6.457a11.831,11.831,0,0,0,.864,5.007,29.058,29.058,0,0,0,5.163,8.607,31.757,31.757,0,0,0,10.574,8.284,16.477,16.477,0,0,0,5.94,1.757c.142,0,.29.013.425.013a5.084,5.084,0,0,0,3.895-1.674c0-.013.02-.02.027-.033A15.341,15.341,0,0,1,28.081,27.2c.29-.276.587-.567.877-.87a3.367,3.367,0,0,0,1.019-2.343,3.243,3.243,0,0,0-1.039-2.315Zm2.417,7.106h0c-.263.283-.534.541-.823.823a17.742,17.742,0,0,0-1.3,1.349,3.254,3.254,0,0,1-2.537,1.073h-.31a14.637,14.637,0,0,1-5.264-1.58A29.978,29.978,0,0,1,7.442,18.92a27.4,27.4,0,0,1-4.853-8.092A9.635,9.635,0,0,1,1.832,6.6,3.1,3.1,0,0,1,2.762,4.6l2.3-2.3a1.535,1.535,0,0,1,1.026-.479,1.444,1.444,0,0,1,.986.472l.02.02c.412.385.8.783,1.215,1.208.209.216.425.432.641.654l1.838,1.843a1.289,1.289,0,0,1,0,2.092c-.2.2-.385.392-.581.581-.567.581-1.106,1.12-1.694,1.647-.013.013-.027.02-.033.033A1.376,1.376,0,0,0,8.129,11.9l.02.06a14.792,14.792,0,0,0,2.176,3.556h0a24.77,24.77,0,0,0,5.993,5.453,9.215,9.215,0,0,0,.837.452c.243.122.472.236.669.358.027.013.054.033.08.047a1.463,1.463,0,0,0,.669.167,1.443,1.443,0,0,0,1.026-.465l2.318-2.291a1.526,1.526,0,0,1,1.019-.5,1.374,1.374,0,0,1,.972.492l.013.013,3.719,3.719a1.339,1.339,0,0,1,.005,2.105Z" fill="#fff"/>
        </g>
      </g>
      <g id="Group_2687" data-name="Group 2687">
        <rect id="Rectangle_2016" data-name="Rectangle 2016" width="40.167" height="40.167" fill="none"/>
      </g>
    </g>
  </g>
</svg>
