<svg id="Page-1" xmlns="http://www.w3.org/2000/svg" width="316.438" height="345.333" viewBox="0 0 316.438 345.333">
  <g id="_022---Cross-File" data-name="022---Cross-File" transform="translate(-0.001)">
    <path id="Shape" d="M293.667,28.767A28.8,28.8,0,0,0,264.9,0H34.767A28.8,28.8,0,0,0,6,28.767V138.08a5.753,5.753,0,1,0,11.507,0V28.767a17.26,17.26,0,0,1,17.26-17.26H264.9a17.26,17.26,0,0,1,17.26,17.26v224.38H241.887a28.8,28.8,0,0,0-28.767,28.767v40.273H190.107a5.753,5.753,0,0,0,0,11.507h28.767a5.753,5.753,0,0,0,4.068-1.686l69.04-69.04a5.753,5.753,0,0,0,1.686-4.068Zm-51.78,235.887h32.138l-49.4,49.4V281.914A17.26,17.26,0,0,1,241.887,264.654Z" transform="translate(22.772)" fill="#0060ae"/>
    <path id="Shape-2" data-name="Shape" d="M29.26,6H17.753a5.753,5.753,0,1,0,0,11.507H29.26A5.753,5.753,0,1,0,29.26,6Z" transform="translate(51.292 28.52)" fill="#0060ae"/>
    <path id="Shape-3" data-name="Shape" d="M196.353,6H23.753a5.753,5.753,0,0,0,0,11.507h172.6a5.753,5.753,0,1,0,0-11.507Z" transform="translate(79.812 28.52)" fill="#0060ae"/>
    <path id="Shape-4" data-name="Shape" d="M29.26,12H17.753a5.753,5.753,0,1,0,0,11.507H29.26A5.753,5.753,0,1,0,29.26,12Z" transform="translate(51.292 57.04)" fill="#0060ae"/>
    <path id="Shape-5" data-name="Shape" d="M23.753,23.507H156.08a5.753,5.753,0,0,0,0-11.507H23.753a5.753,5.753,0,0,0,0,11.507Z" transform="translate(79.812 57.04)" fill="#0060ae"/>
    <path id="Shape-6" data-name="Shape" d="M29.26,18H17.753a5.753,5.753,0,1,0,0,11.507H29.26A5.753,5.753,0,1,0,29.26,18Z" transform="translate(51.292 85.56)" fill="#0060ae"/>
    <path id="Shape-7" data-name="Shape" d="M23.753,29.507h92.053a5.753,5.753,0,1,0,0-11.507H23.753a5.753,5.753,0,0,0,0,11.507Z" transform="translate(79.812 85.56)" fill="#0060ae"/>
    <path id="Shape-8" data-name="Shape" d="M61.507,25.753a5.753,5.753,0,1,0-11.507,0V106.3a5.753,5.753,0,1,0,11.507,0Z" transform="translate(231.918 95.067)" fill="#0060ae"/>
    <path id="Shape-9" data-name="Shape" d="M55.753,38A5.753,5.753,0,0,0,50,43.753V55.26a5.753,5.753,0,1,0,11.507,0V43.753A5.753,5.753,0,0,0,55.753,38Z" transform="translate(231.918 180.627)" fill="#0060ae"/>
    <path id="Shape-10" data-name="Shape" d="M1,188.627a23.013,23.013,0,0,0,38.95,17.07l55.98-53.736L151.908,205.7a23.013,23.013,0,1,0,31.879-33.2l-54.622-52.442,54.622-52.442a23.013,23.013,0,0,0-15.465-39.612,22.766,22.766,0,0,0-16.409,6.415L95.934,88.157,39.96,34.421a23.013,23.013,0,1,0-31.879,33.2L62.7,120.059,8.081,172.5A22.818,22.818,0,0,0,1,188.627Zm15.039-7.83,58.949-56.59a5.753,5.753,0,0,0,0-8.3L16.049,59.321a11.507,11.507,0,0,1,7.732-19.809,11.271,11.271,0,0,1,8.2,3.2l59.967,57.568a5.753,5.753,0,0,0,7.963,0l59.967-57.568a11.127,11.127,0,0,1,8.2-3.2,11.507,11.507,0,0,1,7.732,19.809l-58.943,56.59a5.753,5.753,0,0,0,0,8.3l58.943,56.59a11.507,11.507,0,0,1,.328,16.27,11.789,11.789,0,0,1-16.265.334L99.915,139.868a5.753,5.753,0,0,0-7.963,0L31.986,197.4a11.783,11.783,0,0,1-16.27-.334,11.507,11.507,0,0,1,.334-16.27Z" transform="translate(-0.999 133.088)" fill="#0060ae"/>
  </g>
</svg>
