<svg xmlns="http://www.w3.org/2000/svg" width="33.844" height="38" viewBox="0 0 33.844 38">
  <g id="professions-and-jobs" transform="translate(-28)">
    <g id="Group_72" data-name="Group 72" transform="translate(28)">
      <path id="Path_42" data-name="Path 42" d="M61.8,36.593,58.793,25.58a1.113,1.113,0,0,0-.428-.613l-7.287-5.189a8.61,8.61,0,0,0,2.441-5.994c0-4.489.03-4.734-.1-5.553A8.139,8.139,0,0,0,45.095,0h-.346a8.139,8.139,0,0,0-8.323,8.23c-.132.819-.1,1.064-.1,5.553a8.61,8.61,0,0,0,2.441,5.994l-7.287,5.189a1.113,1.113,0,0,0-.428.613L28.04,36.593A1.114,1.114,0,0,0,29.114,38H43.808V26.235l1.113-.731,1.113.731V38H60.73A1.114,1.114,0,0,0,61.8,36.593ZM44.195,3.607h1.454a1.113,1.113,0,0,1,0,2.227H44.195a1.113,1.113,0,0,1,0-2.227Zm-.386,19.964L41.36,25.18l-3.267-2.191,2.5-1.781A8.564,8.564,0,0,0,43.809,22.3Zm1.113-3.425a6.369,6.369,0,0,1-6.371-6.362c0-.8,0-1.457,0-2.01l.6.874a1.113,1.113,0,0,0,.918.484h9.712a1.113,1.113,0,0,0,.918-.484l.6-.874c0,.552,0,1.212,0,2.01A6.369,6.369,0,0,1,44.922,20.146Zm1.113,3.425V22.3a8.556,8.556,0,0,0,3.214-1.093l2.5,1.781L48.484,25.18Zm8.344,9.686h-3.9a1.113,1.113,0,1,1,0-2.227h3.9a1.113,1.113,0,1,1,0,2.227Z" transform="translate(-28)" fill="#39a2f6"/>
    </g>
  </g>
</svg>
