<svg xmlns="http://www.w3.org/2000/svg" width="319" height="514" viewBox="0 0 319 514">
  <g id="Group_70" data-name="Group 70" transform="translate(-18740 -294)">
    <g id="Rectangle_49" data-name="Rectangle 49" transform="translate(18740 294)" fill="none" stroke="#0060ae" stroke-width="20">
      <rect width="319" height="514" rx="30" stroke="none"/>
      <rect x="10" y="10" width="299" height="494" rx="20" fill="none"/>
    </g>
    <g id="Rectangle_50" data-name="Rectangle 50" transform="translate(18846 343)" fill="#0060ae" stroke="#707070" stroke-width="1">
      <rect width="77" height="16" rx="8" stroke="none"/>
      <rect x="0.5" y="0.5" width="76" height="15" rx="7.5" fill="none"/>
    </g>
    <g id="Rectangle_51" data-name="Rectangle 51" transform="translate(18938 343)" fill="#0060ae" stroke="#707070" stroke-width="1">
      <rect width="15" height="16" rx="7.5" stroke="none"/>
      <rect x="0.5" y="0.5" width="14" height="15" rx="7" fill="none"/>
    </g>
    <g id="qr-code" transform="translate(18827.658 479.279)">
      <path id="Path_6540" data-name="Path 6540" d="M54.04,0H0V54.04H54.04ZM45.033,45.033H9.007V9.007H45.033Z" fill="#0060ae"/>
      <path id="Path_6541" data-name="Path 6541" d="M2,2H20.013V20.013H2Z" transform="translate(16.013 16.013)" fill="#0060ae"/>
      <path id="Path_6542" data-name="Path 6542" d="M0,64.04H54.04V10H0ZM9.007,19.007H45.033V55.033H9.007Z" transform="translate(0 80.066)" fill="#0060ae"/>
      <path id="Path_6543" data-name="Path 6543" d="M2,12H20.013V30.013H2Z" transform="translate(16.013 96.079)" fill="#0060ae"/>
      <path id="Path_6544" data-name="Path 6544" d="M10,0V54.04H64.04V0ZM55.033,45.033H19.007V9.007H55.033Z" transform="translate(80.066)" fill="#0060ae"/>
      <path id="Path_6545" data-name="Path 6545" d="M12,2H30.013V20.013H12Z" transform="translate(96.079 16.013)" fill="#0060ae"/>
      <path id="Path_6546" data-name="Path 6546" d="M18.013,7H0V25.013H27.02V16.007H18.013Z" transform="translate(0 56.046)" fill="#0060ae"/>
      <path id="Path_6547" data-name="Path 6547" d="M7,9H25.013V27.013H7Z" transform="translate(56.046 72.06)" fill="#0060ae"/>
      <path id="Path_6548" data-name="Path 6548" d="M3,7H21.013v9.007H3Z" transform="translate(24.02 56.046)" fill="#0060ae"/>
      <path id="Path_6549" data-name="Path 6549" d="M25.013,12H7v9.007h9.007v9.007h9.007V12Z" transform="translate(56.046 96.079)" fill="#0060ae"/>
      <path id="Path_6550" data-name="Path 6550" d="M14.007,7v9.007H5v9.007H23.013V7Z" transform="translate(40.033 56.046)" fill="#0060ae"/>
      <path id="Path_6551" data-name="Path 6551" d="M8,4h9.007V22.013H8Z" transform="translate(64.053 32.026)" fill="#0060ae"/>
      <path id="Path_6552" data-name="Path 6552" d="M17.007,16.007v9.007H35.02V7H8v9.007Z" transform="translate(64.053 56.046)" fill="#0060ae"/>
      <path id="Path_6553" data-name="Path 6553" d="M7,6h9.007v9.007H7Z" transform="translate(56.046 48.04)" fill="#0060ae"/>
      <path id="Path_6554" data-name="Path 6554" d="M9,14H27.013V32.013H9Z" transform="translate(72.06 112.093)" fill="#0060ae"/>
      <path id="Path_6555" data-name="Path 6555" d="M7,14h9.007V32.013H7Z" transform="translate(56.046 112.093)" fill="#0060ae"/>
      <path id="Path_6556" data-name="Path 6556" d="M9,11h9.007v9.007H9Z" transform="translate(72.06 88.073)" fill="#0060ae"/>
      <path id="Path_6557" data-name="Path 6557" d="M25.013,27.02V9.007H16.007V0H7V36.026h9.007V27.02Z" transform="translate(56.046)" fill="#0060ae"/>
      <path id="Path_6558" data-name="Path 6558" d="M12,14h9.007V32.013H12Z" transform="translate(96.079 112.093)" fill="#0060ae"/>
      <path id="Path_6559" data-name="Path 6559" d="M12,12H30.013v9.007H12Z" transform="translate(96.079 96.079)" fill="#0060ae"/>
      <path id="Path_6560" data-name="Path 6560" d="M11,13h9.007v9.007H11Z" transform="translate(88.073 104.086)" fill="#0060ae"/>
      <path id="Path_6561" data-name="Path 6561" d="M10,12h9.007v9.007H10Z" transform="translate(80.066 96.079)" fill="#0060ae"/>
      <path id="Path_6562" data-name="Path 6562" d="M14,10v9.007h9.007v9.007h9.007V10H14Z" transform="translate(112.093 80.066)" fill="#0060ae"/>
      <path id="Path_6563" data-name="Path 6563" d="M23.007,13H14V40.02H32.013V22.007H23.007Z" transform="translate(112.093 104.086)" fill="#0060ae"/>
      <path id="Path_6564" data-name="Path 6564" d="M10,18.007v9.007H37.02V9H19.007v9.007Z" transform="translate(80.066 72.06)" fill="#0060ae"/>
      <path id="Path_6565" data-name="Path 6565" d="M12,7v9.007H30.013v9.007H48.026V7H12Z" transform="translate(96.079 56.046)" fill="#0060ae"/>
    </g>
    <g id="Rectangle_52" data-name="Rectangle 52" transform="translate(18828 699)" fill="#0060ae" stroke="#707070" stroke-width="1">
      <rect width="144" height="47" rx="23.5" stroke="none"/>
      <rect x="0.5" y="0.5" width="143" height="46" rx="23" fill="none"/>
    </g>
  </g>
</svg>
